{
    "prepare_queue": {
        "installed": [],
        "uninstalled": []
    },
    "config_munge": {
        "files": {
            "res/xml/config.xml": {
                "parents": {
                    "/*": [
                        {
                            "xml": "<feature name=\"File\"><param name=\"android-package\" value=\"org.apache.cordova.file.FileUtils\" /><param name=\"onload\" value=\"true\" /></feature>",
                            "count": 1
                        },
                        {
                            "xml": "<feature name=\"Camera\"><param name=\"android-package\" value=\"org.apache.cordova.camera.CameraLauncher\" /></feature>",
                            "count": 1
                        },
                        {
                            "xml": "<feature name=\"Geolocation\"><param name=\"android-package\" value=\"org.apache.cordova.geolocation.Geolocation\" /></feature>",
                            "count": 1
                        },
                        {
                            "xml": "<feature name=\"Compass\"><param name=\"android-package\" value=\"org.apache.cordova.deviceorientation.CompassListener\" /></feature>",
                            "count": 1
                        },
                        {
                            "xml": "<feature name=\"Accelerometer\"><param name=\"android-package\" value=\"org.apache.cordova.devicemotion.AccelListener\" /></feature>",
                            "count": 1
                        },
                        {
                            "xml": "<feature name=\"NativePageTransitions\"><param name=\"android-package\" value=\"com.telerik.plugins.nativepagetransitions.NativePageTransitions\" /><param name=\"onload\" value=\"true\" /></feature>",
                            "count": 1
                        }
                    ]
                }
            },
            "AndroidManifest.xml": {
                "parents": {
                    "/*": [
                        {
                            "xml": "<uses-permission android:name=\"android.permission.WRITE_EXTERNAL_STORAGE\" />",
                            "count": 2
                        },
                        {
                            "xml": "<uses-permission android:name=\"android.permission.ACCESS_COARSE_LOCATION\" />",
                            "count": 2
                        },
                        {
                            "xml": "<uses-permission android:name=\"android.permission.ACCESS_FINE_LOCATION\" />",
                            "count": 2
                        }
                    ]
                }
            }
        }
    },
    "installed_plugins": {
        "cordova-plugin-file": {
            "PACKAGE_NAME": "io.cordova.myappe2785d518e9f4f6ea03055878dd7a400"
        },
        "cordova-plugin-camera": {
            "PACKAGE_NAME": "io.cordova.myappe2785d518e9f4f6ea03055878dd7a400"
        },
        "cordova-plugin-geolocation": {
            "PACKAGE_NAME": "io.cordova.myappe2785d518e9f4f6ea03055878dd7a400"
        },
        "cordova-plugin-device-orientation": {
            "PACKAGE_NAME": "io.cordova.myappe2785d518e9f4f6ea03055878dd7a400"
        },
        "cordova-plugin-device-motion": {
            "PACKAGE_NAME": "io.cordova.myappe2785d518e9f4f6ea03055878dd7a400"
        },
        "com.telerik.plugins.nativepagetransitions": {
            "PACKAGE_NAME": "io.cordova.myappe2785d518e9f4f6ea03055878dd7a400"
        }
    },
    "dependent_plugins": {
        "cordova-plugin-compat": {
            "PACKAGE_NAME": "io.cordova.myappe2785d518e9f4f6ea03055878dd7a400"
        }
    }
}